<?xml version="1.0" encoding="UTF-8" standalone="no"?>
<svg xmlns:xlink="http://www.w3.org/1999/xlink" height="41.05px" width="28.45px" xmlns="http://www.w3.org/2000/svg">
  <g transform="matrix(1.0, 0.0, 0.0, 1.0, 14.35, 40.15)">
    <path d="M-6.55 -23.85 L-2.25 -28.5 -2.4 -31.45 -2.25 -35.8 -2.1 -40.15 1.5 -37.9 Q5.05 -34.25 1.55 -30.25 L0.9 -29.6 Q1.85 -26.4 4.7 -24.1 L6.95 -29.5 7.85 -29.7 Q7.9 -22.6 11.2 -15.85 L12.7 -16.55 Q13.75 -14.5 13.1 -12.1 L10.05 -2.85 Q9.8 -2.25 9.2 -1.8 3.35 2.1 -3.65 0.35 -5.15 0.05 -6.35 -0.65 -10.3 -3.1 -12.1 -6.95 L-11.6 -7.7 Q-13.6 -12.1 -12.4 -16.85 -11.25 -21.55 -8.45 -25.65 -10.6 -29.9 -7.0 -32.85 L-5.7 -25.95 -6.55 -23.9 Q-6.85 -24.65 -7.7 -25.05 -8.95 -19.7 -10.85 -14.4 -12.25 -10.4 -10.2 -6.65 L-8.75 -4.1 Q-7.9 -2.6 -6.5 -1.3 -4.35 0.6 -1.55 -0.4 L1.9 -0.85 Q8.0 -0.8 10.2 -5.8 12.0 -9.9 11.05 -13.85 L9.6 -12.75 Q9.75 -19.0 6.1 -23.75 L4.8 -21.65 Q4.85 -22.55 4.05 -23.2 0.55 -25.8 -0.8 -29.75 L-1.2 -28.8 Q-3.0 -25.2 -6.35 -22.4 -6.3 -23.3 -6.55 -23.85 M11.2 -33.15 L12.1 -31.1 11.25 -30.0 10.7 -32.55 11.2 -33.15 M12.9 -21.1 Q13.05 -19.7 13.35 -20.65 L13.0 -21.3 12.9 -21.1 M13.1 -23.6 L14.1 -20.25 12.3 -17.9 11.6 -18.45 13.1 -23.6 M2.45 -12.8 L4.1 -16.3 Q5.1 -14.2 4.85 -11.8 4.2 -6.5 -0.25 -3.15 -1.5 -2.25 -3.1 -1.95 L-4.9 -2.1 -6.6 -3.5 Q-6.5 -8.75 -4.7 -13.75 L-3.7 -16.25 Q-2.05 -19.95 -2.65 -23.95 L-0.9 -26.3 1.15 -22.8 0.65 -21.95 2.45 -12.8 M-1.9 -38.0 Q-0.85 -35.85 -0.8 -34.3 -1.75 -32.85 -1.7 -31.65 -1.75 -31.25 -1.2 -31.2 1.2 -31.25 1.5 -34.9 -0.5 -38.4 -1.45 -38.4 L-1.9 -38.0 M-14.35 -26.0 L-13.4 -26.0 -13.4 -22.9 -14.35 -22.9 -14.35 -26.0 M-7.25 -25.85 L-7.25 -25.8 -7.2 -25.8 -7.25 -25.85 M-7.15 -27.45 L-8.6 -29.6 -7.7 -26.25 -7.15 -27.45" fill="#ffcc00" fill-rule="evenodd" stroke="none"/>
    <path d="M-6.55 -23.85 Q-6.3 -23.3 -6.35 -22.4 -3.0 -25.2 -1.2 -28.8 L-0.8 -29.75 Q0.55 -25.8 4.05 -23.2 4.85 -22.55 4.8 -21.65 L6.1 -23.75 Q9.75 -19.0 9.6 -12.75 L11.05 -13.85 Q12.0 -9.9 10.2 -5.8 8.0 -0.8 1.9 -0.85 L-1.55 -0.4 Q-4.35 0.6 -6.5 -1.3 -7.9 -2.6 -8.75 -4.1 L-10.2 -6.65 Q-12.25 -10.4 -10.85 -14.4 -8.95 -19.7 -7.7 -25.05 -6.85 -24.65 -6.55 -23.9 L-6.55 -23.85 M12.9 -21.1 L13.0 -21.3 13.35 -20.65 Q13.05 -19.7 12.9 -21.1 M-1.9 -38.0 L-1.45 -38.4 Q-0.5 -38.4 1.5 -34.9 1.2 -31.25 -1.2 -31.2 -1.75 -31.25 -1.7 -31.65 -1.75 -32.85 -0.8 -34.3 -0.85 -35.85 -1.9 -38.0 M2.45 -12.8 L0.65 -21.95 1.15 -22.8 -0.9 -26.3 -2.65 -23.95 Q-2.05 -19.95 -3.7 -16.25 L-4.7 -13.75 Q-6.5 -8.75 -6.6 -3.5 L-4.9 -2.1 -3.1 -1.95 Q-1.5 -2.25 -0.25 -3.15 4.2 -6.5 4.85 -11.8 5.1 -14.2 4.1 -16.3 L2.45 -12.8 M-7.15 -27.45 L-7.7 -26.25 -8.6 -29.6 -7.15 -27.45" fill="#ffff00" fill-rule="evenodd" stroke="none"/>
    <path d="M-0.15 -26.4 Q-0.8 -24.7 -2.05 -23.4 L-0.6 -28.15 Q0.4 -28.0 -0.15 -26.4 M-6.25 -14.7 Q-7.2 -14.85 -7.55 -15.5 -9.15 -18.05 -8.45 -20.9 L-6.25 -14.7 M0.4 -7.95 L0.2 -6.85 -0.3 -6.35 -0.3 -7.5 -4.25 -7.0 0.4 -7.95 M8.05 -16.4 L8.15 -16.45 8.7 -16.2 Q7.3 -12.4 3.9 -10.0 2.5 -9.0 0.55 -9.0 L0.3 -9.5 -5.95 -6.85 -0.25 -5.65 Q-0.65 -4.95 -1.45 -4.85 L-2.9 -4.75 -4.0 -4.65 Q-2.9 -4.25 -0.75 -4.7 0.65 -4.85 1.8 -5.9 L0.8 -5.8 0.1 -6.1 5.75 -10.4 3.5 -6.8 Q5.65 -7.65 6.7 -9.5 L8.3 -11.85 Q7.75 -7.9 3.7 -5.75 1.2 -4.35 -1.5 -3.4 -3.35 -2.9 -4.65 -3.95 L-5.1 -5.1 -7.05 -6.35 -7.85 -6.25 -7.55 -6.9 -9.15 -9.75 -6.7 -7.55 -5.85 -8.1 -6.5 -8.05 -7.15 -8.65 Q-4.8 -11.35 -1.3 -12.25 L-1.95 -11.0 8.05 -16.4 M2.65 -16.6 L3.2 -16.1 -3.7 -12.25 -7.0 -13.8 2.8 -17.55 2.65 -16.6 M0.65 -23.35 L1.35 -22.65 Q-1.25 -19.55 -5.75 -19.25 L-6.0 -18.9 -6.95 -19.25 Q-5.55 -21.1 -3.05 -21.6 L0.65 -23.35 M1.8 -19.85 L4.05 -21.95 5.0 -21.55 5.1 -19.45 Q3.6 -18.0 1.55 -17.5 L-3.6 -16.7 Q-4.0 -16.9 -4.4 -17.15 L1.15 -20.35 1.8 -19.85" fill="#993300" fill-rule="evenodd" stroke="none"/>
  </g>
</svg>
