<?xml version="1.0" encoding="UTF-8" standalone="no"?>
<svg xmlns:xlink="http://www.w3.org/1999/xlink" height="24.3px" width="27.1px" xmlns="http://www.w3.org/2000/svg">
  <g transform="matrix(1.0, 0.0, 0.0, 1.0, 13.55, 24.15)">
    <path d="M1.4 -0.35 Q-3.4 -0.35 -6.85 -3.8 -10.25 -7.2 -10.25 -12.0 -10.25 -16.85 -6.85 -20.25 -3.4 -23.65 1.4 -23.65 6.2 -23.65 9.6 -20.25 13.05 -16.85 13.05 -12.0 13.05 -7.2 9.6 -3.8 6.2 -0.35 1.4 -0.35" fill="#6d0101" fill-rule="evenodd" stroke="none"/>
    <path d="M1.4 -0.35 Q-3.4 -0.35 -6.85 -3.8 -10.25 -7.2 -10.25 -12.0 -10.25 -16.85 -6.85 -20.25 -3.4 -23.65 1.4 -23.65 6.2 -23.65 9.6 -20.25 13.05 -16.85 13.05 -12.0 13.05 -7.2 9.6 -3.8 6.2 -0.35 1.4 -0.35 Z" fill="none" stroke="#cc9900" stroke-linecap="round" stroke-linejoin="round" stroke-width="1.0"/>
    <path d="M6.8 -20.25 Q9.25 -17.85 10.0 -14.65 L10.25 -12.0 Q10.25 -7.2 6.8 -3.8 L5.75 -2.8 5.4 -2.55 Q2.45 -0.35 -1.4 -0.35 -5.05 -0.35 -7.85 -2.3 L-9.65 -3.8 Q-13.05 -7.2 -13.05 -12.0 -13.05 -16.85 -9.65 -20.25 -6.2 -23.65 -1.4 -23.65 2.75 -23.65 5.9 -21.1 L6.8 -20.25" fill="#993300" fill-rule="evenodd" stroke="none"/>
    <path d="M9.75 -14.3 L3.55 -9.8 5.8 -2.85 M9.7 -14.55 L2.0 -14.55 3.55 -9.8 -0.6 -6.8 5.45 -2.45 M-7.75 -2.2 L-8.75 -3.1 Q-12.15 -6.5 -12.15 -11.3 -12.15 -16.15 -8.75 -19.55 -5.3 -22.95 -0.5 -22.95 3.15 -22.95 6.0 -21.0 M-0.6 -6.8 L-7.15 -2.0 -4.7 -9.75 -11.25 -14.55 -3.15 -14.55 -0.5 -22.3 2.0 -14.55 -3.15 -14.55 -4.7 -9.75 -0.6 -6.8" fill="none" stroke="#660000" stroke-linecap="round" stroke-linejoin="round" stroke-width="1.0"/>
    <path d="M2.65 -10.5 L9.2 -15.25 1.1 -15.25 2.65 -10.5 5.15 -2.7 -1.5 -7.5 -8.05 -2.7 -5.6 -10.45 -12.15 -15.25 -4.05 -15.25 -1.4 -23.0 1.1 -15.25 -4.05 -15.25 -5.6 -10.45 -1.5 -7.5 2.65 -10.5 M6.8 -3.8 Q3.4 -0.35 -1.4 -0.35 -6.2 -0.35 -9.65 -3.8 -13.05 -7.2 -13.05 -12.0 -13.05 -16.85 -9.65 -20.25 -6.2 -23.65 -1.4 -23.65 3.4 -23.65 6.8 -20.25 10.25 -16.85 10.25 -12.0 10.25 -7.2 6.8 -3.8" fill="none" stroke="#ffcc00" stroke-linecap="round" stroke-linejoin="round" stroke-width="1.0"/>
  </g>
</svg>
