<?xml version="1.0" encoding="UTF-8" standalone="no"?>
<svg
   xmlns:dc="http://purl.org/dc/elements/1.1/"
   xmlns:cc="http://creativecommons.org/ns#"
   xmlns:rdf="http://www.w3.org/1999/02/22-rdf-syntax-ns#"
   xmlns:svg="http://www.w3.org/2000/svg"
   xmlns="http://www.w3.org/2000/svg"
   xmlns:sodipodi="http://sodipodi.sourceforge.net/DTD/sodipodi-0.dtd"
   xmlns:inkscape="http://www.inkscape.org/namespaces/inkscape"
   height="29.890221"
   width="31.682844"
   version="1.1"
   id="svg35"
   sodipodi:docname="3449.svg"
   inkscape:version="0.92.1 r15371">
  <metadata
     id="metadata39">
    <rdf:RDF>
      <cc:Work
         rdf:about="">
        <dc:format>image/svg+xml</dc:format>
        <dc:type
           rdf:resource="http://purl.org/dc/dcmitype/StillImage" />
        <dc:title></dc:title>
      </cc:Work>
    </rdf:RDF>
  </metadata>
  <sodipodi:namedview
     pagecolor="#ffffff"
     bordercolor="#666666"
     borderopacity="1"
     objecttolerance="10"
     gridtolerance="10"
     guidetolerance="10"
     inkscape:pageopacity="0"
     inkscape:pageshadow="2"
     inkscape:window-width="1920"
     inkscape:window-height="1016"
     id="namedview37"
     showgrid="false"
     fit-margin-top="0"
     fit-margin-left="0"
     fit-margin-right="0"
     fit-margin-bottom="0"
     inkscape:pagecheckerboard="true"
     inkscape:zoom="9.6519719"
     inkscape:cx="10.172511"
     inkscape:cy="7.0222966"
     inkscape:window-x="0"
     inkscape:window-y="27"
     inkscape:window-maximized="1"
     inkscape:current-layer="svg35" />
  <g
     transform="translate(16.432844,28.29022)"
     id="g16"
     clip-path="url(#clipPath3715)">
    <path
       d="m -49.2,-28.35 0.3,0.25 -0.05,0.2 -0.25,0.1 -0.2,-0.45 0.2,-0.1 m 44.95,1.45 0.15,0.05 -0.2,0.45 q 0,0.95 1.8,1 1.4,-0.05 1.4,-0.95 0,-0.95 -2.2,-0.95 l -0.15,-0.05 0.9,-0.05 q 1.8,-0.05 1.85,0.75 l -0.2,1.35 0.1,0.5 0.2,1.15 -0.05,0.3 q -1.5,0.05 -2.1,0.65 L -4,-23.45 -4.4,-24 l -0.05,-0.1 -0.1,-0.2 0.1,-0.15 -0.2,-1.4 q 0,-0.7 0.4,-1.05 M 2.4,-22.75 2,-23 q -0.3,-0.25 -0.45,-0.65 l -0.1,-0.9 V -24.7 H 1.4 v -0.1 -0.45 Q 1.35,-27.3 3.5,-27.3 l 1.95,0.35 0.15,0.4 q 0,1.85 -0.65,2.4 v 0.05 0.25 0.05 l -0.15,0.45 q -0.25,0.6 -0.95,0.75 l -0.35,0.05 -1.1,-0.2 m 1.05,-4.5 q -1.2,0 -1.2,1 0,0.6 1.25,0.6 1.75,-0.05 1.75,-0.65 0,-0.95 -1.8,-0.95"
       id="path2"
       inkscape:connector-curvature="0"
       style="fill:#eecf53;fill-rule:evenodd;stroke:none" />
    <path
       d="m 14.05,1.1 h -24 Q -5.4,0.7 2,-1.2 q 8.6,-3.95 8.6,-4.6 l -0.05,-0.4 q 1.5,0.6 1.55,2.75 l 0.1,0.3 0.25,0.2 q 1.75,0.55 1.8,2.5 v 0.2 L 14.1,0.95 14.05,1.1 m -27.15,0 h -2.1 V 1 L -15.3,0.2 V 0.15 q 0,-1.7 0.95,-2.5 l 0.2,-0.2 q 0.6,-1.35 5,-2.9 H -9.2 l 0.5,-0.2 0.1,-0.05 0.15,0.15 0.45,0.45 q -1.4,0.65 -2.8,1.7 -2.95,2.3 -2.95,3.55 -0.15,0.75 0.65,0.95 m 9.65,-28.45 0.15,0.05 q 2.2,0 2.2,0.95 0,0.9 -1.4,0.95 -1.8,-0.05 -1.8,-1 l 0.2,-0.45 -0.15,-0.05 -0.1,-0.1 q 0.2,-0.4 0.9,-0.35 m -0.95,3.35 0.4,0.55 1.25,0.75 q -0.45,0.4 -0.45,1.05 l 0.25,2.55 -0.85,-0.35 -0.55,-1.75 0.1,-0.55 v -0.35 l 0.1,-0.9 -0.3,-1 h 0.05 m 3.75,0.65 0.05,-0.3 -0.2,-1.15 1.8,0.05 v 0.1 h 0.05 v 0.1 l 0.1,0.75 q 0.15,0.4 0.45,0.6 l -1.7,-0.2 -0.55,0.05 m 2.45,1.55 0.05,0.15 -0.55,0.8 -1.55,0.2 q -1.9,0 -2.05,-0.95 v -0.05 -0.05 l 0.1,-0.4 q 0.5,-0.45 2.1,-0.45 1.45,0 1.9,0.75 m -4.25,2.7 v 0.45 l 0.1,0.45 -0.25,-0.05 v -0.1 l -0.05,-0.2 v 0.1 l -2.4,-0.35 0.1,-0.55 0.05,-0.15 q 0.25,0.85 0.9,0.85 h 0.05 l 0.55,0.1 0.7,-0.05 0.05,0.05 0.05,-0.05 h 0.05 l 0.05,-0.25 v -0.1 l 0.05,-0.15 m 5.5,0.45 -0.75,0.15 v -0.25 -0.15 q 0.3,0.2 0.75,0.25 M -5.1,-22.9 q -0.3,0.65 -1.5,0.65 -1.05,0 -1.4,-0.65 l -0.2,-0.85 q 0,-0.85 1.05,-0.8 H -7 -6.95 -6.8 -6.95 l 0.9,0.2 0.95,1.45 m 10.85,2.45 v 0.3 l -0.3,0.65 -0.95,0.6 q 0.8,-0.45 1.25,-1.55 m -0.8,-3.35 0.6,0.35 0.15,0.1 Q 5,-19.4 3.45,-19.4 2.7,-19.4 2.7,-20.25 3.3,-22 2.4,-22.75 l 1.1,0.2 0.35,-0.05 q 0.7,-0.15 0.95,-0.75 l 0.15,-0.45 m -1.5,-3.45 q 1.8,0 1.8,0.95 0,0.6 -1.75,0.65 -1.25,0 -1.25,-0.6 0,-1 1.2,-1 m 2.8,3 q 0.25,-0.35 1.45,-0.4 l 1.5,0.2 0.65,0.35 -0.05,0.15 q -0.25,0.45 -2.1,0.45 -1.2,0 -1.45,-0.35 v -0.2 -0.2 m -1.2,0.95 0.45,-0.05 -0.5,-0.05 0.05,0.1"
       id="path4"
       inkscape:connector-curvature="0"
       style="fill:#f9eec1;fill-rule:evenodd;stroke:none" />
    <path
       d="m -9.95,1.1 -2.2,0.1 -0.95,-0.1 q -0.8,-0.2 -0.65,-0.95 0,-1.25 2.95,-3.55 1.4,-1.05 2.8,-1.7 2.45,2.15 6,2.1 4.55,0.3 8.85,-1 1.55,-0.45 2.4,-1.8 l 0.4,-0.65 0.2,0.05 0.7,0.2 0.05,0.4 q 0,0.65 -8.6,4.6 -7.4,1.9 -11.95,2.3"
       id="path6"
       inkscape:connector-curvature="0"
       style="fill:#d0ab15;fill-rule:evenodd;stroke:none" />
    <path
       d="M 9.95,-20.7 9.75,-21.15 9.6,-21 9.4,-21.15 q -0.3,0 -0.45,0.45 h -3.1 q 0.4,-1.25 0.4,-3.15 0.25,0.35 1.45,0.35 1.85,0 2.1,-0.45 l 0.25,0.35 v 1.2 1.25 0.45 h -0.1 m -0.75,-3.75 -1.5,-0.2 q -1.2,0.05 -1.45,0.4 v -0.15 -0.05 l 0.4,-0.2 1.1,-0.15 1.05,0.15 0.4,0.2"
       id="path8"
       inkscape:connector-curvature="0"
       style="fill:url(#gradient0);fill-rule:evenodd;stroke:none" />
    <path
       d="m -2.35,-18.2 v 0.05 0.15 l 5.4,-0.5 v -0.15 H 3.3 l 1.2,-0.25 0.95,-0.6 0.3,-0.65 v -0.3 l 0.1,-0.25 h 3.1 q 0.15,-0.45 0.45,-0.45 l 0.2,0.15 0.15,-0.15 0.2,0.45 0.05,0.55 -0.2,3.7 -0.15,1.7 Q 10.25,-10.3 9.3,-7.5 8.1,-3.9 -0.1,-4 -6.6,-4.1 -8.45,-6.1 L -8.5,-6.3 -8.75,-6.55 -9.05,-7.3 q -0.8,-3.2 -0.3,-5.15 l 0.7,-4.55 0.05,-1.05 q 0,-3.3 0.6,-4.85 0.35,0.65 1.4,0.65 1.2,0 1.5,-0.65 l 0.1,0.3 -0.15,1.2 0.25,1.9 -0.05,0.15 -0.1,0.55 2.4,0.35 v -0.1 l 0.05,0.2 v 0.1 l 0.25,0.05 m 7.4,-5.1 -0.05,-0.1 0.5,0.05 -0.45,0.05"
       id="path10"
       inkscape:connector-curvature="0"
       style="fill:url(#gradient1);fill-rule:evenodd;stroke:none" />
    <path
       d="m -2.2,-22.1 -0.1,0.4 v 0.05 0.05 q 0.15,0.95 2.05,0.95 l 1.55,-0.2 0.55,-0.8 -0.05,-0.15 0.2,0.75 q -0.5,1.65 0.3,2.15 v 0.15 0.25 l 0.75,-0.15 v 0.15 l -5.4,0.5 v -0.15 -0.05 l -0.1,-0.45 v -0.45 l -0.05,-2.55 0.3,-0.45"
       id="path12"
       inkscape:connector-curvature="0"
       style="fill:url(#gradient2);fill-rule:evenodd;stroke:none" />
    <path
       d="m -15.2,1.1 -0.05,0.25 -0.3,0.25 -0.4,-0.05 -0.2,-0.3 L -16.3,0.2 V 0.15 q 0,-2.2 1.25,-3.2 0.7,-1.65 5.55,-3.35 h 0.05 l 0.2,-0.1 q -1.55,-2.15 -1.15,-5 0.9,-6.35 1.3,-12.65 l 0.1,-0.4 h 0.05 l 0.25,-0.35 q 1.5,-1.2 3.05,-0.4 l 0.1,0.1 0.15,0.1 0.05,-1.95 0.2,-0.55 0.45,-0.35 3.5,-0.1 h 0.1 l 1.05,0.65 0.25,0.35 0.05,0.05 0.05,0.4 -0.05,0.85 0.25,0.05 0.05,-0.1 0.8,-1.2 0.05,-0.05 0.15,-0.15 Q 3,-28.5 4.9,-28.05 H 4.95 5.1 l 0.9,0.4 0.45,0.4 0.15,0.65 -0.15,1.05 q 2.05,-0.55 3.95,0.6 l 0.35,0.4 -0.05,-0.05 0.15,0.5 0.3,11.15 q 0.15,3 -1.05,5.6 2.8,0.4 3,3.55 2.05,0.85 2.15,3.3 v 0.25 L 15.05,1.25 14.8,1.55 14.4,1.6 14.1,1.35 14.05,1.1 14.1,0.95 l 0.15,-1.2 v -0.2 q -0.05,-1.95 -1.8,-2.5 l -0.25,-0.2 -0.1,-0.3 Q 12.05,-5.6 10.55,-6.2 L 9.85,-6.4 9.65,-6.45 9.25,-5.8 Q 8.4,-4.45 6.85,-4 2.55,-2.7 -2,-3 -5.55,-2.95 -8,-5.1 l -0.45,-0.45 -0.15,-0.15 -0.1,0.05 -0.5,0.2 h 0.05 q -4.4,1.55 -5,2.9 l -0.2,0.2 q -0.95,0.8 -0.95,2.5 V 0.2 l 0.1,0.8 v 0.1 m 10.95,-28 q -0.4,0.35 -0.4,1.05 l 0.2,1.4 -0.1,0.15 0.1,0.2 0.05,0.1 h -0.05 l 0.3,1 -0.1,0.9 v 0.35 l -0.1,0.55 0.55,1.75 0.85,0.35 -0.25,-2.55 q 0,-0.65 0.45,-1.05 0.6,-0.6 2.1,-0.65 l 0.55,-0.05 1.7,0.2 q -0.3,-0.2 -0.45,-0.6 l -0.1,-0.75 v -0.1 H 1 v -0.1 l -1.8,-0.05 -0.1,-0.5 0.2,-1.35 q -0.05,-0.8 -1.85,-0.75 l -0.9,0.05 q -0.7,-0.05 -0.9,0.35 l 0.1,0.1 m 2.05,4.8 -0.3,0.45 0.05,2.55 -0.05,0.15 v 0.1 l -0.05,0.25 H -2.6 l -0.05,0.05 -0.05,-0.05 -0.7,0.05 -0.55,-0.1 H -4 q -0.65,0 -0.9,-0.85 l -0.25,-1.9 0.15,-1.2 -0.1,-0.3 -0.95,-1.45 -0.9,-0.2 H -6.8 -6.95 -7 -7.15 q -1.05,-0.05 -1.05,0.8 l 0.2,0.85 q -0.6,1.55 -0.6,4.85 l -0.05,1.05 -0.7,4.55 q -0.5,1.95 0.3,5.15 l 0.3,0.75 0.25,0.25 0.05,0.2 q 1.85,2 8.35,2.1 8.2,0.1 9.4,-3.5 0.95,-2.8 0.35,-7.25 l 0.15,-1.7 0.2,-3.7 -0.05,-0.55 h 0.1 v -0.45 -1.25 -1.2 l -0.25,-0.35 0.05,-0.15 -0.65,-0.35 -0.4,-0.2 -1.05,-0.15 -1.1,0.15 -0.4,0.2 v 0.05 0.15 0.2 0.2 q 0,1.9 -0.4,3.15 l -0.1,0.25 q -0.45,1.1 -1.25,1.55 l -1.2,0.25 H 3.05 Q 2.6,-18.7 2.3,-18.9 1.5,-19.4 2,-21.05 L 1.8,-21.8 q -0.45,-0.75 -1.9,-0.75 -1.6,0 -2.1,0.45 m 7.15,-1.7 v -0.05 -0.25 -0.05 Q 5.6,-24.7 5.6,-26.55 L 5.45,-26.95 3.5,-27.3 q -2.15,0 -2.1,2.05 v 0.45 0.1 h 0.05 v 0.15 l 0.1,0.9 Q 1.7,-23.25 2,-23 l 0.4,0.25 q 0.9,0.75 0.3,2.5 0,0.85 0.75,0.85 1.55,0 2.25,-3.95 l -0.15,-0.1 -0.6,-0.35"
       id="path14"
       inkscape:connector-curvature="0"
       style="fill:#6c4f0b;fill-rule:evenodd;stroke:none" />
  </g>
  <defs
     id="defs33">
    <linearGradient
       gradientTransform="matrix(0.0112,0,0,0.011,1,-15.85)"
       gradientUnits="userSpaceOnUse"
       id="gradient0"
       spreadMethod="pad"
       x1="-819.20001"
       x2="819.20001">
      <stop
         offset="0.6509803921568628"
         stop-color="#eecf53"
         id="stop18" />
      <stop
         offset="1.0"
         stop-color="#f8edbf"
         id="stop20" />
    </linearGradient>
    <linearGradient
       gradientTransform="matrix(0.0085,0,0,0.0132,2.15,-14.85)"
       gradientUnits="userSpaceOnUse"
       id="gradient1"
       spreadMethod="pad"
       x1="-819.20001"
       x2="819.20001">
      <stop
         offset="0.6509803921568628"
         stop-color="#eecf53"
         id="stop23" />
      <stop
         offset="1.0"
         stop-color="#f8edbf"
         id="stop25" />
    </linearGradient>
    <linearGradient
       gradientTransform="matrix(0.0115,0,0,0.0179,4.05,-13.45)"
       gradientUnits="userSpaceOnUse"
       id="gradient2"
       spreadMethod="pad"
       x1="-819.20001"
       x2="819.20001">
      <stop
         offset="0.6509803921568628"
         stop-color="#eecf53"
         id="stop28" />
      <stop
         offset="1.0"
         stop-color="#f8edbf"
         id="stop30" />
    </linearGradient>
    <clipPath
       clipPathUnits="userSpaceOnUse"
       id="clipPath3715">
      <rect
         id="rect3717"
         width="31.703413"
         height="29.926851"
         x="-16.432844"
         y="-28.29022"
         style="fill:none" />
    </clipPath>
  </defs>
</svg>
