<?xml version="1.0" encoding="UTF-8" standalone="no"?>
<svg xmlns:xlink="http://www.w3.org/1999/xlink" height="11.45px" width="12.9px" xmlns="http://www.w3.org/2000/svg">
  <g transform="matrix(1.0, 0.0, 0.0, 1.0, 6.25, 10.3)">
    <path d="M-1.5 -1.05 L-1.65 -1.25 -1.5 -1.05" fill="#ff0000" fill-rule="evenodd" stroke="none"/>
    <path d="M-3.05 -9.1 L-2.25 -8.65 Q-2.15 -8.4 -4.45 -6.85 -4.95 -6.85 -5.0 -7.45 -5.0 -8.0 -4.45 -8.55 -3.8 -9.3 -3.05 -9.1" fill="#ffffff" fill-rule="evenodd" stroke="none"/>
    <path d="M3.7 -9.5 L4.15 -9.1 Q4.9 -8.4 4.9 -7.3 4.9 -5.0 2.3 -3.2 L1.0 -2.05 0.9 -1.95 0.35 -1.2 -0.4 0.1 -1.5 -1.05 -1.65 -1.25 -1.85 -1.45 -1.9 -1.5 Q-1.65 -1.65 -1.55 -1.95 L-1.1 -2.85 -0.65 -3.6 0.7 -4.7 Q3.05 -6.2 3.1 -8.45 3.05 -9.15 2.2 -9.7 L2.0 -9.8 2.0 -9.85 3.5 -9.6 3.7 -9.5 M-2.25 -9.85 L-1.15 -9.55 -0.35 -9.0 -0.25 -8.9 -0.1 -8.75 0.15 -9.0 0.25 -8.6 0.2 -8.15 Q0.05 -7.15 -0.2 -7.15 L-1.35 -8.75 -2.25 -9.85" fill="#4d5f80" fill-rule="evenodd" stroke="none"/>
    <path d="M3.7 -9.5 L4.0 -9.4 4.35 -9.2 4.75 -9.0 4.75 -8.95 5.15 -8.7 Q6.7 -6.55 4.45 -4.1 2.2 -1.7 0.0 0.3 L-0.1 0.35 -0.4 0.1 0.35 -1.2 0.9 -1.95 1.0 -2.05 2.3 -3.2 Q4.9 -5.0 4.9 -7.3 4.9 -8.4 4.15 -9.1 L3.7 -9.5 M-1.9 -1.5 L-3.8 -3.45 Q-6.8 -6.55 -5.35 -8.7 L-4.95 -9.0 Q-5.35 -8.45 -5.35 -7.55 -5.35 -6.05 -3.85 -6.05 -2.15 -6.05 -1.5 -8.05 -1.5 -9.7 -3.1 -9.65 L-3.55 -9.65 -2.25 -9.85 -1.35 -8.75 -0.2 -7.15 Q0.05 -7.15 0.2 -8.15 L0.25 -8.6 0.15 -9.0 Q1.0 -9.75 2.0 -9.8 L2.2 -9.7 Q3.05 -9.15 3.1 -8.45 3.05 -6.2 0.7 -4.7 L-0.65 -3.6 -1.1 -2.85 -1.55 -1.95 Q-1.65 -1.65 -1.9 -1.5" fill="#8b9bba" fill-rule="evenodd" stroke="none"/>
    <path d="M-4.95 -9.0 L-4.9 -9.0 -3.55 -9.65 -3.1 -9.65 Q-1.5 -9.7 -1.5 -8.05 -2.15 -6.05 -3.85 -6.05 -5.35 -6.05 -5.35 -7.55 -5.35 -8.45 -4.95 -9.0 M-3.05 -9.1 Q-3.8 -9.3 -4.45 -8.55 -5.0 -8.0 -5.0 -7.45 -4.95 -6.85 -4.45 -6.85 -2.15 -8.4 -2.25 -8.65 L-3.05 -9.1" fill="#c6cedd" fill-rule="evenodd" stroke="none"/>
    <path d="M5.9 -8.9 Q7.75 -6.35 5.1 -3.5 L0.55 1.0 0.15 1.15 -0.3 1.0 -4.0 -2.85 Q-7.4 -6.4 -5.65 -8.85 L-5.5 -9.0 Q-2.1 -11.4 0.15 -9.45 2.35 -11.4 5.75 -9.0 L5.9 -8.9 M-0.4 0.1 L-0.1 0.35 0.0 0.3 Q2.2 -1.7 4.45 -4.1 6.7 -6.55 5.15 -8.7 L4.75 -8.95 4.75 -9.0 4.35 -9.2 4.0 -9.4 3.7 -9.5 3.5 -9.6 2.0 -9.85 2.0 -9.8 Q1.0 -9.75 0.15 -9.0 L-0.1 -8.75 -0.25 -8.9 -0.35 -9.0 -1.15 -9.55 -2.25 -9.85 -3.55 -9.65 -4.9 -9.0 -4.95 -9.0 -5.35 -8.7 Q-6.8 -6.55 -3.8 -3.45 L-1.9 -1.5 -1.85 -1.45 -1.65 -1.25 -1.5 -1.05 -0.4 0.1" fill="#780101" fill-rule="evenodd" stroke="none"/>
  </g>
</svg>
